{
    "config_dir": "novum.jenv",
    "namespace": "NovumJenv",
    "site": {
        "dev": {
            "protocol": "http",
            "domain": "justitie.demo.novum.nuidev.nl"
        },
        "test": {
            "protocol": "https",
            "domain": "justitie.test.demo.novum.nu"
        },
        "prod": {
            "protocol": "https",
            "domain": "justitie.demo.novum.nu"
        }
    },
    "server_admin": "anton@novum.nu"
}